%YAML 1.1
%TAG !u! tag:unity3d.com,2011:
--- !u!114 &11400000
MonoBehaviour:
  m_ObjectHideFlags: 0
  m_CorrespondingSourceObject: {fileID: 0}
  m_PrefabInstance: {fileID: 0}
  m_PrefabAsset: {fileID: 0}
  m_GameObject: {fileID: 0}
  m_Enabled: 1
  m_EditorHideFlags: 0
  m_Script: {fileID: 11500000, guid: 311ee00de5204c00a14d9ef2ad7457cf, type: 3}
  m_Name: Black
  m_EditorClassIdentifier: 
  Name: Black
  Background: {fileID: 21300000, guid: 97ee85ec251b6b54ca5576421b723311, type: 3}
  RobotShadow: {fileID: 21300000, guid: ec5593a405b1382448b684f91a3f8bb0, type: 3}
  RobotParts:
  - Name: Body
    Sprite: {fileID: 21300000, guid: 228ff6964766c3c44bbb0b7fc1058718, type: 3}
    SocketPosition: {x: 0.02, y: 0.6395729}
    Size: 1
    OrderInLayer: 1
  - Name: Left Hand
    Sprite: {fileID: 21300000, guid: 058cfbf817f6ae04aa5610b38ad54dd7, type: 3}
    SocketPosition: {x: -1.209056, y: 0.67}
    Size: 0
    OrderInLayer: 0
  - Name: Right Hand
    Sprite: {fileID: 21300000, guid: b605132c10f90564a8a6d293831530d9, type: 3}
    SocketPosition: {x: 1.235339, y: 0.708}
    Size: 0
    OrderInLayer: 0
  - Name: Left Leg
    Sprite: {fileID: 21300000, guid: f10b9605e2d6ec740ba0aec348778ec4, type: 3}
    SocketPosition: {x: -0.513, y: -1.251}
    Size: 0
    OrderInLayer: 0
  - Name: Right Leg
    Sprite: {fileID: 21300000, guid: 0beaef0efe6ed4740bcf8184dac46f8f, type: 3}
    SocketPosition: {x: 0.547, y: -1.252862}
    Size: 0
    OrderInLayer: 0
